<?xml version="1.0" encoding="UTF-8" standalone="no" ?>
<COLLADA xmlns="http://www.collada.org/2005/11/COLLADASchema" version="1.4.1">
    <asset>
        <contributor>
            <authoring_tool>SketchUp 16.0.19912</authoring_tool>
        </contributor>
        <created>2016-02-21T22:05:54Z</created>
        <modified>2016-02-21T22:05:54Z</modified>
        <unit meter="0.0254" name="inch" />
        <up_axis>Z_UP</up_axis>
    </asset>
    <library_visual_scenes>
        <visual_scene id="ID1">
            <node name="SketchUp">
                <instance_geometry url="#ID2">
                    <bind_material>
                        <technique_common>
                            <instance_material symbol="Material2" target="#ID3">
                                <bind_vertex_input semantic="UVSET0" input_semantic="TEXCOORD" input_set="0" />
                            </instance_material>
                        </technique_common>
                    </bind_material>
                </instance_geometry>
                <node id="skp_camera" name="Last Saved SketchUp View">
                    <lookat>-488.3349 2072.303 -1294.71 68.82184 1588.613 -671.0096 -0.4874984 0.4232166 0.763697</lookat>
                </node>
            </node>
        </visual_scene>
    </library_visual_scenes>
    <library_geometries>
        <geometry id="ID2">
            <mesh>
                <source id="ID8">
                    <float_array id="ID12" count="72">252.6325 1694.706 0 232.9475 119.9029 0 232.9475 1694.706 0 252.6325 119.9029 0 252.6325 1694.706 0 252.6325 119.9029 118.1102 252.6325 119.9029 0 252.6325 1694.706 118.1102 252.6325 119.9029 118.1102 232.9475 119.9029 0 252.6325 119.9029 0 232.9475 119.9029 118.1102 232.9475 1694.706 118.1102 232.9475 119.9029 0 232.9475 119.9029 118.1102 232.9475 1694.706 0 232.9475 1694.706 118.1102 252.6325 1694.706 0 232.9475 1694.706 0 252.6325 1694.706 118.1102 252.6325 119.9029 118.1102 232.9475 1694.706 118.1102 232.9475 119.9029 118.1102 252.6325 1694.706 118.1102</float_array>
                    <technique_common>
                        <accessor count="24" source="#ID12" stride="3">
                            <param name="X" type="float" />
                            <param name="Y" type="float" />
                            <param name="Z" type="float" />
                        </accessor>
                    </technique_common>
                </source>
                <source id="ID9">
                    <float_array id="ID13" count="72">0 0 -1 0 0 -1 0 0 -1 0 0 -1 1 0 0 1 0 0 1 0 0 1 0 0 -0 -1 -0 -0 -1 -0 -0 -1 -0 -0 -1 -0 -1 0 0 -1 0 0 -1 0 0 -1 0 0 -0 1 0 -0 1 0 -0 1 0 -0 1 0 -0 -0 1 -0 -0 1 -0 -0 1 -0 -0 1</float_array>
                    <technique_common>
                        <accessor count="24" source="#ID13" stride="3">
                            <param name="X" type="float" />
                            <param name="Y" type="float" />
                            <param name="Z" type="float" />
                        </accessor>
                    </technique_common>
                </source>
                <source id="ID11">
                    <float_array id="ID14" count="48">-7.01757 77.03209 -6.470763 5.450132 -6.470763 77.03209 -7.01757 5.450132 47.07517 0 3.330636 5.368647 3.330636 0 47.07517 5.368647 7.01757 5.368647 6.470763 0 7.01757 0 6.470763 5.368647 -47.07517 5.368647 -3.330636 0 -3.330636 5.368647 -47.07517 0 -6.470763 5.368647 -7.01757 0 -6.470763 0 -7.01757 5.368647 7.01757 5.450132 6.470763 77.03209 6.470763 5.450132 7.01757 77.03209</float_array>
                    <technique_common>
                        <accessor count="24" source="#ID14" stride="2">
                            <param name="S" type="float" />
                            <param name="T" type="float" />
                        </accessor>
                    </technique_common>
                </source>
                <vertices id="ID10">
                    <input semantic="POSITION" source="#ID8" />
                    <input semantic="NORMAL" source="#ID9" />
                </vertices>
                <triangles count="12" material="Material2">
                    <input offset="0" semantic="VERTEX" source="#ID10" />
                    <input offset="1" semantic="TEXCOORD" source="#ID11" />
                    <p>0 0 1 1 2 2 1 1 0 0 3 3 4 4 5 5 6 6 5 5 4 4 7 7 8 8 9 9 10 10 9 9 8 8 11 11 12 12 13 13 14 14 13 13 12 12 15 15 16 16 17 17 18 18 17 17 16 16 19 19 20 20 21 21 22 22 21 21 20 20 23 23</p>
                </triangles>
            </mesh>
        </geometry>
    </library_geometries>
    <library_materials>
        <material id="ID3" name="Brick_Rough_Dark">
            <instance_effect url="#ID4" />
        </material>
    </library_materials>
    <library_effects>
        <effect id="ID4">
            <profile_COMMON>
                <newparam sid="ID6">
                    <surface type="2D">
                        <init_from>ID5</init_from>
                    </surface>
                </newparam>
                <newparam sid="ID7">
                    <sampler2D>
                        <source>ID6</source>
                    </sampler2D>
                </newparam>
                <technique sid="COMMON">
                    <lambert>
                        <diffuse>
                            <texture texture="ID7" texcoord="UVSET0" />
                        </diffuse>
                    </lambert>
                </technique>
            </profile_COMMON>
        </effect>
    </library_effects>
    <library_images>
        <image id="ID5">
            <init_from>bigwall/Brick_Rough_Dark.jpg</init_from>
        </image>
    </library_images>
    <scene>
        <instance_visual_scene url="#ID1" />
    </scene>
</COLLADA>
